{
  "page": 2,
  "total_pages": 2,
  "total_results": 4,
  "results": [
    {
      "id": 3,
      "title": "Test Movie 3",
      "original_title": "Test Movie 3",
      "adult": false,
      "release_date": "2021-04-01",
      "overview": "Overview 3",
      "poster_path": "PosterPath 3"
    },
    {
      "id": 4,
      "title": "Test Movie 4",
      "original_title": "Test Movie 4",
      "adult": false,
      "release_date": "2021-04-01",
      "overview": "Overview 4",
      "poster_path": "PosterPath 4"
    }
  ]
}