{
  "page": 1,
  "total_pages": 2,
  "total_results": 4,
  "results": [
    {
      "id": 1,
      "title": "Test Movie 1",
      "original_title": "Test Movie 1",
      "adult": false,
      "release_date": "2021-04-01",
      "overview": "Overview 1",
      "poster_path": "PosterPath 1"
    },
    {
      "id": 2,
      "title": "Test Movie 2",
      "original_title": "Test Movie 2",
      "adult": false,
      "release_date": "2021-04-01",
      "overview": "Overview 2",
      "poster_path": "PosterPath 2"
    }
  ]
}