{
  "page": 2,
  "total_pages": 2,
  "total_results": 4,
  "results": [
    {
      "id": 3,
      "title": "Test Tv Series 3",
      "original_name": "Test Tv Series 3",
      "name": "Name Tv Series 3",
      "adult": false,
      "first_air_date": "2021-04-01",
      "overview": "Overview 3",
      "poster_path": "PosterPath 3"
    },
    {
      "id": 4,
      "title": "Test Tv Series 4",
      "original_name": "Test Tv Series 4",
      "name": "Name Tv Series 4",
      "adult": false,
      "first_air_date": "2021-04-01",
      "overview": "Overview 4",
      "poster_path": "PosterPath 4"
    }
  ]
}